Mar 15, 2013 11:24:50 PM org.apache.solr.core.SolrResourceLoader locateSolrHome
INFO: JNDI not configured for solr (NoInitialContextEx)
Mar 15, 2013 11:24:51 PM org.apache.solr.core.SolrResourceLoader locateSolrHome
INFO: using system property solr.solr.home: /home/web/oritmo.com/releases/20130315223257/solr
Mar 15, 2013 11:24:51 PM org.apache.solr.core.SolrResourceLoader <init>
INFO: Solr home set to '/home/web/oritmo.com/releases/20130315223257/solr/'
Mar 15, 2013 11:24:51 PM org.apache.solr.servlet.SolrDispatchFilter init
INFO: SolrDispatchFilter.init()
Mar 15, 2013 11:24:51 PM org.apache.solr.core.SolrResourceLoader locateSolrHome
INFO: JNDI not configured for solr (NoInitialContextEx)
Mar 15, 2013 11:24:51 PM org.apache.solr.core.SolrResourceLoader locateSolrHome
INFO: using system property solr.solr.home: /home/web/oritmo.com/releases/20130315223257/solr
Mar 15, 2013 11:24:51 PM org.apache.solr.core.CoreContainer$Initializer initialize
INFO: looking for solr.xml: /home/web/oritmo.com/releases/20130315223257/solr/solr.xml
Mar 15, 2013 11:24:51 PM org.apache.solr.core.SolrResourceLoader <init>
INFO: Solr home set to '/home/web/oritmo.com/releases/20130315223257/solr/'
Mar 15, 2013 11:24:51 PM org.apache.solr.core.SolrConfig initLibs
INFO: Adding specified lib dirs to ClassLoader
Mar 15, 2013 11:24:52 PM org.apache.solr.core.SolrConfig <init>
INFO: Loaded SolrConfig: solrconfig.xml
Mar 15, 2013 11:24:53 PM org.apache.solr.core.SolrCore <init>
INFO: Opening new SolrCore at /home/web/oritmo.com/releases/20130315223257/solr/, dataDir=/home/web/oritmo.com/releases/20130315223257/solr/data/production/
Mar 15, 2013 11:24:53 PM org.apache.solr.schema.IndexSchema readSchema
INFO: Reading Solr Schema
Mar 15, 2013 11:24:53 PM org.apache.solr.schema.IndexSchema readSchema
INFO: Schema name=sunspot
Mar 15, 2013 11:24:53 PM org.apache.solr.util.plugin.AbstractPluginLoader load
INFO: created string: org.apache.solr.schema.StrField
Mar 15, 2013 11:24:53 PM org.apache.solr.util.plugin.AbstractPluginLoader load
INFO: created tdouble: org.apache.solr.schema.TrieDoubleField
Mar 15, 2013 11:24:53 PM org.apache.solr.util.plugin.AbstractPluginLoader load
INFO: created rand: org.apache.solr.schema.RandomSortField
Mar 15, 2013 11:24:53 PM org.apache.solr.util.plugin.AbstractPluginLoader load
INFO: created null: org.apache.solr.analysis.StandardTokenizerFactory
Mar 15, 2013 11:24:53 PM org.apache.solr.util.plugin.AbstractPluginLoader load
INFO: created null: org.apache.solr.analysis.StandardFilterFactory
Mar 15, 2013 11:24:53 PM org.apache.solr.util.plugin.AbstractPluginLoader load
INFO: created null: org.apache.solr.analysis.LowerCaseFilterFactory
Mar 15, 2013 11:24:53 PM org.apache.solr.util.plugin.AbstractPluginLoader load
INFO: created text: org.apache.solr.schema.TextField
Mar 15, 2013 11:24:53 PM org.apache.solr.util.plugin.AbstractPluginLoader load
INFO: created boolean: org.apache.solr.schema.BoolField
Mar 15, 2013 11:24:53 PM org.apache.solr.util.plugin.AbstractPluginLoader load
INFO: created date: org.apache.solr.schema.DateField
Mar 15, 2013 11:24:53 PM org.apache.solr.util.plugin.AbstractPluginLoader load
INFO: created sdouble: org.apache.solr.schema.SortableDoubleField
Mar 15, 2013 11:24:53 PM org.apache.solr.util.plugin.AbstractPluginLoader load
INFO: created sfloat: org.apache.solr.schema.SortableFloatField
Mar 15, 2013 11:24:53 PM org.apache.solr.util.plugin.AbstractPluginLoader load
INFO: created sint: org.apache.solr.schema.SortableIntField
Mar 15, 2013 11:24:53 PM org.apache.solr.util.plugin.AbstractPluginLoader load
INFO: created slong: org.apache.solr.schema.SortableLongField
Mar 15, 2013 11:24:53 PM org.apache.solr.util.plugin.AbstractPluginLoader load
INFO: created tint: org.apache.solr.schema.TrieIntField
Mar 15, 2013 11:24:53 PM org.apache.solr.util.plugin.AbstractPluginLoader load
INFO: created tfloat: org.apache.solr.schema.TrieFloatField
Mar 15, 2013 11:24:53 PM org.apache.solr.util.plugin.AbstractPluginLoader load
INFO: created tdate: org.apache.solr.schema.TrieDateField
Mar 15, 2013 11:24:53 PM org.apache.solr.schema.IndexSchema readSchema
INFO: default search field is text
Mar 15, 2013 11:24:53 PM org.apache.solr.schema.IndexSchema readSchema
INFO: query parser default operator is AND
Mar 15, 2013 11:24:53 PM org.apache.solr.schema.IndexSchema readSchema
INFO: unique key field: id
Mar 15, 2013 11:24:53 PM org.apache.solr.core.JmxMonitoredMap <init>
INFO: No JMX servers found, not exposing Solr information with JMX.
Mar 15, 2013 11:24:53 PM org.apache.solr.core.SolrCore initListeners
INFO: Added SolrEventListener: org.apache.solr.core.QuerySenderListener{queries=[]}
Mar 15, 2013 11:24:53 PM org.apache.solr.core.SolrCore initListeners
INFO: Added SolrEventListener: org.apache.solr.core.QuerySenderListener{queries=[{q=solr rocks,start=0,rows=10}, {q=static firstSearcher warming query from solrconfig.xml}]}
Mar 15, 2013 11:24:53 PM org.apache.solr.core.SolrCore initIndex
WARNING: Solr index directory '/home/web/oritmo.com/releases/20130315223257/solr/data/production/index' doesn't exist. Creating new index...
Mar 15, 2013 11:24:53 PM org.apache.solr.core.SolrDeletionPolicy onInit
INFO: SolrDeletionPolicy.onInit: commits:num=1
	commit{dir=/home/web/oritmo.com/releases/20130315223257/solr/data/production/index,segFN=segments_1,version=1363389893616,generation=1,filenames=[segments_1]
Mar 15, 2013 11:24:53 PM org.apache.solr.core.SolrDeletionPolicy updateCommits
INFO: newest commit = 1363389893616
Mar 15, 2013 11:24:53 PM org.apache.solr.request.XSLTResponseWriter init
INFO: xsltCacheLifetimeSeconds=5
Mar 15, 2013 11:24:53 PM org.apache.solr.core.RequestHandlers initHandlersFromConfig
INFO: created standard: solr.SearchHandler
Mar 15, 2013 11:24:53 PM org.apache.solr.core.RequestHandlers initHandlersFromConfig
INFO: created dismax: solr.SearchHandler
Mar 15, 2013 11:24:53 PM org.apache.solr.core.RequestHandlers initHandlersFromConfig
INFO: created partitioned: solr.SearchHandler
Mar 15, 2013 11:24:53 PM org.apache.solr.core.RequestHandlers initHandlersFromConfig
INFO: created /spell: solr.SearchHandler
Mar 15, 2013 11:24:53 PM org.apache.solr.core.RequestHandlers initHandlersFromConfig
INFO: created tvrh: org.apache.solr.handler.component.SearchHandler
Mar 15, 2013 11:24:53 PM org.apache.solr.core.RequestHandlers initHandlersFromConfig
INFO: adding lazy requestHandler: org.apache.solr.handler.extraction.ExtractingRequestHandler
Mar 15, 2013 11:24:53 PM org.apache.solr.core.RequestHandlers initHandlersFromConfig
INFO: created /update/extract: org.apache.solr.handler.extraction.ExtractingRequestHandler
Mar 15, 2013 11:24:53 PM org.apache.solr.core.RequestHandlers initHandlersFromConfig
INFO: created /terms: org.apache.solr.handler.component.SearchHandler
Mar 15, 2013 11:24:53 PM org.apache.solr.core.RequestHandlers initHandlersFromConfig
INFO: adding lazy requestHandler: solr.SearchHandler
Mar 15, 2013 11:24:53 PM org.apache.solr.core.RequestHandlers initHandlersFromConfig
INFO: created /elevate: solr.SearchHandler
Mar 15, 2013 11:24:53 PM org.apache.solr.core.RequestHandlers initHandlersFromConfig
INFO: created /update: solr.XmlUpdateRequestHandler
Mar 15, 2013 11:24:54 PM org.apache.solr.core.RequestHandlers initHandlersFromConfig
INFO: created /update/javabin: solr.BinaryUpdateRequestHandler
Mar 15, 2013 11:24:54 PM org.apache.solr.core.RequestHandlers initHandlersFromConfig
INFO: created /analysis/document: solr.DocumentAnalysisRequestHandler
Mar 15, 2013 11:24:54 PM org.apache.solr.core.RequestHandlers initHandlersFromConfig
INFO: created /analysis/field: solr.FieldAnalysisRequestHandler
Mar 15, 2013 11:24:54 PM org.apache.solr.core.RequestHandlers initHandlersFromConfig
INFO: adding lazy requestHandler: solr.CSVRequestHandler
Mar 15, 2013 11:24:54 PM org.apache.solr.core.RequestHandlers initHandlersFromConfig
INFO: created /update/csv: solr.CSVRequestHandler
Mar 15, 2013 11:24:54 PM org.apache.solr.core.RequestHandlers initHandlersFromConfig
INFO: created /admin/: org.apache.solr.handler.admin.AdminHandlers
Mar 15, 2013 11:24:54 PM org.apache.solr.core.RequestHandlers initHandlersFromConfig
INFO: created /admin/ping: PingRequestHandler
Mar 15, 2013 11:24:54 PM org.apache.solr.core.RequestHandlers initHandlersFromConfig
INFO: created /debug/dump: solr.DumpRequestHandler
Mar 15, 2013 11:24:54 PM org.apache.solr.core.RequestHandlers initHandlersFromConfig
INFO: created /mlt: solr.MoreLikeThisHandler
Mar 15, 2013 11:24:54 PM org.apache.solr.search.SolrIndexSearcher <init>
INFO: Opening Searcher@4c6504bc main
Mar 15, 2013 11:24:54 PM org.apache.solr.update.DirectUpdateHandler2$CommitTracker <init>
INFO: AutoCommit: disabled
Mar 15, 2013 11:24:54 PM org.apache.solr.handler.component.SpellCheckComponent inform
INFO: Initializing spell checkers
Mar 15, 2013 11:24:54 PM org.apache.solr.spelling.AbstractLuceneSpellChecker init
INFO: Using WhitespaceAnalzyer for dictionary: default
Mar 15, 2013 11:24:54 PM org.apache.solr.handler.component.SpellCheckComponent inform
WARNING: No queryConverter defined, using default converter
Mar 15, 2013 11:24:54 PM org.apache.solr.handler.component.QueryElevationComponent inform
INFO: Loading QueryElevation from: /home/web/oritmo.com/releases/20130315223257/solr/conf/elevate.xml
Mar 15, 2013 11:24:54 PM org.apache.solr.handler.component.SearchHandler inform
INFO: Adding  component:org.apache.solr.handler.component.QueryComponent@2b3d9460
Mar 15, 2013 11:24:54 PM org.apache.solr.handler.component.SearchHandler inform
INFO: Adding  component:org.apache.solr.handler.component.FacetComponent@57d840cd
Mar 15, 2013 11:24:54 PM org.apache.solr.handler.component.SearchHandler inform
INFO: Adding  component:org.apache.solr.handler.component.MoreLikeThisComponent@36867fc9
Mar 15, 2013 11:24:54 PM org.apache.solr.handler.component.SearchHandler inform
INFO: Adding  component:org.apache.solr.handler.component.HighlightComponent@382f8116
Mar 15, 2013 11:24:54 PM org.apache.solr.handler.component.SearchHandler inform
INFO: Adding  component:org.apache.solr.handler.component.StatsComponent@36c3e82b
Mar 15, 2013 11:24:54 PM org.apache.solr.handler.component.SearchHandler inform
INFO: Adding  debug component:org.apache.solr.handler.component.DebugComponent@77bf7b23
Mar 15, 2013 11:24:54 PM org.apache.solr.handler.component.SearchHandler inform
INFO: Adding  component:org.apache.solr.handler.component.QueryComponent@2b3d9460
Mar 15, 2013 11:24:54 PM org.apache.solr.handler.component.SearchHandler inform
INFO: Adding  component:org.apache.solr.handler.component.FacetComponent@57d840cd
Mar 15, 2013 11:24:54 PM org.apache.solr.handler.component.SearchHandler inform
INFO: Adding  component:org.apache.solr.handler.component.MoreLikeThisComponent@36867fc9
Mar 15, 2013 11:24:54 PM org.apache.solr.handler.component.SearchHandler inform
INFO: Adding  component:org.apache.solr.handler.component.HighlightComponent@382f8116
Mar 15, 2013 11:24:54 PM org.apache.solr.handler.component.SearchHandler inform
INFO: Adding  component:org.apache.solr.handler.component.StatsComponent@36c3e82b
Mar 15, 2013 11:24:54 PM org.apache.solr.handler.component.SearchHandler inform
INFO: Adding  debug component:org.apache.solr.handler.component.DebugComponent@77bf7b23
Mar 15, 2013 11:24:54 PM org.apache.solr.handler.component.SearchHandler inform
INFO: Adding  component:org.apache.solr.handler.component.QueryComponent@2b3d9460
Mar 15, 2013 11:24:54 PM org.apache.solr.handler.component.SearchHandler inform
INFO: Adding  component:org.apache.solr.handler.component.FacetComponent@57d840cd
Mar 15, 2013 11:24:54 PM org.apache.solr.handler.component.SearchHandler inform
INFO: Adding  component:org.apache.solr.handler.component.MoreLikeThisComponent@36867fc9
Mar 15, 2013 11:24:54 PM org.apache.solr.handler.component.SearchHandler inform
INFO: Adding  component:org.apache.solr.handler.component.HighlightComponent@382f8116
Mar 15, 2013 11:24:54 PM org.apache.solr.handler.component.SearchHandler inform
INFO: Adding  component:org.apache.solr.handler.component.StatsComponent@36c3e82b
Mar 15, 2013 11:24:54 PM org.apache.solr.handler.component.SearchHandler inform
INFO: Adding  debug component:org.apache.solr.handler.component.DebugComponent@77bf7b23
Mar 15, 2013 11:24:54 PM org.apache.solr.handler.component.SearchHandler inform
INFO: Adding  component:org.apache.solr.handler.component.QueryComponent@2b3d9460
Mar 15, 2013 11:24:54 PM org.apache.solr.handler.component.SearchHandler inform
INFO: Adding  component:org.apache.solr.handler.component.FacetComponent@57d840cd
Mar 15, 2013 11:24:54 PM org.apache.solr.handler.component.SearchHandler inform
INFO: Adding  component:org.apache.solr.handler.component.MoreLikeThisComponent@36867fc9
Mar 15, 2013 11:24:54 PM org.apache.solr.handler.component.SearchHandler inform
INFO: Adding  component:org.apache.solr.handler.component.HighlightComponent@382f8116
Mar 15, 2013 11:24:54 PM org.apache.solr.handler.component.SearchHandler inform
INFO: Adding  component:org.apache.solr.handler.component.StatsComponent@36c3e82b
Mar 15, 2013 11:24:54 PM org.apache.solr.handler.component.SearchHandler inform
INFO: Adding  component:org.apache.solr.handler.component.SpellCheckComponent@3c2d7440
Mar 15, 2013 11:24:54 PM org.apache.solr.handler.component.SearchHandler inform
INFO: Adding  debug component:org.apache.solr.handler.component.DebugComponent@77bf7b23
Mar 15, 2013 11:24:54 PM org.apache.solr.handler.component.SearchHandler inform
INFO: Adding  component:org.apache.solr.handler.component.QueryComponent@2b3d9460
Mar 15, 2013 11:24:54 PM org.apache.solr.handler.component.SearchHandler inform
INFO: Adding  component:org.apache.solr.handler.component.FacetComponent@57d840cd
Mar 15, 2013 11:24:54 PM org.apache.solr.handler.component.SearchHandler inform
INFO: Adding  component:org.apache.solr.handler.component.MoreLikeThisComponent@36867fc9
Mar 15, 2013 11:24:54 PM org.apache.solr.handler.component.SearchHandler inform
INFO: Adding  component:org.apache.solr.handler.component.HighlightComponent@382f8116
Mar 15, 2013 11:24:54 PM org.apache.solr.handler.component.SearchHandler inform
INFO: Adding  component:org.apache.solr.handler.component.StatsComponent@36c3e82b
Mar 15, 2013 11:24:54 PM org.apache.solr.handler.component.SearchHandler inform
INFO: Adding  component:org.apache.solr.handler.component.TermVectorComponent@4c2b349d
Mar 15, 2013 11:24:54 PM org.apache.solr.handler.component.SearchHandler inform
INFO: Adding  debug component:org.apache.solr.handler.component.DebugComponent@77bf7b23
Mar 15, 2013 11:24:54 PM org.apache.solr.handler.component.SearchHandler inform
INFO: Adding  component:org.apache.solr.handler.component.TermsComponent@288b567c
Mar 15, 2013 11:24:54 PM org.apache.solr.core.QuerySenderListener newSearcher
INFO: QuerySenderListener sending requests to Searcher@4c6504bc main
Mar 15, 2013 11:24:54 PM org.apache.solr.core.CoreContainer register
INFO: registering core: 
Mar 15, 2013 11:24:54 PM org.apache.solr.servlet.SolrDispatchFilter init
INFO: user.dir=/home/web/oritmo.com/shared/bundle/ruby/1.9.1/gems/sunspot_solr-1.3.3/solr
Mar 15, 2013 11:24:54 PM org.apache.solr.servlet.SolrDispatchFilter init
INFO: SolrDispatchFilter.init() done
Mar 15, 2013 11:24:54 PM org.apache.solr.core.SolrCore execute
INFO: [] webapp=null path=null params={start=0&event=firstSearcher&q=solr+rocks&rows=10} hits=0 status=0 QTime=257 
Mar 15, 2013 11:24:54 PM org.apache.solr.core.SolrCore execute
INFO: [] webapp=null path=null params={event=firstSearcher&q=static+firstSearcher+warming+query+from+solrconfig.xml} hits=0 status=0 QTime=1 
Mar 15, 2013 11:24:54 PM org.apache.solr.core.QuerySenderListener newSearcher
INFO: QuerySenderListener done.
Mar 15, 2013 11:24:54 PM org.apache.solr.handler.component.SpellCheckComponent$SpellCheckerListener newSearcher
INFO: Loading spell index for spellchecker: default
Mar 15, 2013 11:24:54 PM org.apache.solr.core.SolrCore registerSearcher
INFO: [] Registered new searcher Searcher@4c6504bc main
Mar 15, 2013 11:24:54 PM org.apache.solr.servlet.SolrServlet init
INFO: SolrServlet.init()
Mar 15, 2013 11:24:54 PM org.apache.solr.core.SolrResourceLoader locateSolrHome
INFO: JNDI not configured for solr (NoInitialContextEx)
Mar 15, 2013 11:24:54 PM org.apache.solr.core.SolrResourceLoader locateSolrHome
INFO: using system property solr.solr.home: /home/web/oritmo.com/releases/20130315223257/solr
Mar 15, 2013 11:24:54 PM org.apache.solr.servlet.SolrServlet init
INFO: SolrServlet.init() done
Mar 15, 2013 11:24:54 PM org.apache.solr.core.SolrResourceLoader locateSolrHome
INFO: JNDI not configured for solr (NoInitialContextEx)
Mar 15, 2013 11:24:54 PM org.apache.solr.core.SolrResourceLoader locateSolrHome
INFO: using system property solr.solr.home: /home/web/oritmo.com/releases/20130315223257/solr
Mar 15, 2013 11:24:54 PM org.apache.solr.servlet.SolrUpdateServlet init
INFO: SolrUpdateServlet.init() done
